(module pkm13epyh4000 (layer F.Cu) (tedit 5B251107)
  (fp_text reference SP1 (at 35.3 -19.7 270) (layer F.SilkS) hide
    (effects (font (size 1 1) (thickness 0.15)))
  )
  (fp_text value SPEAKER (at 0.1 -1.75) (layer F.Fab)
    (effects (font (size 1 1) (thickness 0.15)))
  )
  (fp_circle (center 0 0) (end 6.3 6.3) (layer F.SilkS) (width 0.15))
  (pad 2 thru_hole circle (at 2.5 0) (size 0.95 0.95) (drill 0.55) (layers *.Cu *.Mask))
  (pad 1 thru_hole circle (at -2.5 0) (size 0.95 0.95) (drill 0.55) (layers *.Cu *.Mask))
)
